{
    "code": 200,
    "message": "成功",
    "data": {               
        "trademarkList": [
            {
                "tmId": 0,
                "tmName": "苹果"
            }, {
                "tmId": 1,
                "tmName": "小米"
            }, {
                "tmId": 2,
                "tmName": "华为"
            }, {
                "tmId": 3,
                "tmName": "oppo"
            }
        ],
        "attrsList": [
            {
                "attrId": 0,
                "attrValueList": [
                    "4G",
                    "6G",
                    "8G"
                ],
                "attrName": "运行内存"
            },{
                "attrId": 1,
                "attrValueList": [
                    "安卓手机",
                    "IOS"
                ],
                "attrName": "手机一级"
            },{
                "attrId": 2,
                "attrValueList": [
                    "苹果",
                    "小米",
                    "华为",
                    "oppo"
                ],
                "attrName": "二级手机"
            },{
                "attrId": 3,
                "attrValueList": [
                    "骁龙439",
                    "骁龙855",
                    "plus骁龙730",
                    "G骁龙845",
                    "麒麟990",
                    "5G骁龙76",
                    " 8GExynos980",
                    "MTK Helio G85"
                ],
                "attrName": "CPU型号"
            },{
                "attrId": 4,
                "attrValueList": [
                    "6.95英寸及以上",
                    "6.0～6.24英寸",
                    " 6.85-6.94英寸",
                    "6.75-6.84英寸",
                    "6.65-6.74英寸",
                    "6.55-6.64英寸",
                    "6.45-6.54英寸",
                    "6.35-6.44英寸"
                ],
                "attrName": "屏幕尺寸"
            }
        ],
        "goodsList": [
            {
                "id": 1,
                "defaultImg": "/images/mobile01.png",
                "title": "Apple iPhone 11 (A2223)",
                "price": 5499,
                "createTime": null,
                "tmId": null,
                "tmName": null,
                "category1Id": null,
                "category1Name": null,
                "category2Id": null,
                "category2Name": null,
                "category3Id": null,
                "category3Name": null,
                "hotScore": 0,
                "attrs": null,
                "appraise": 5000
            },
            {
                "id": 2,
                "defaultImg": "/images/9a28034971309f0d.jpg",
                "title": "魅族17 Pro 8GB+128GB 定白 骁龙865 旗舰5G手机 27W无线充 6400W后置主摄",
                "price": 2000,
                "createTime": null,
                "tmId": null,
                "tmName": null,
                "category1Id": null,
                "category1Name": null,
                "category2Id": null,
                "category2Name": null,
                "category3Id": null,
                "category3Name": null,
                "hotScore": 0,
                "attrs": null,
                "appraise": 4000
            },
            {
                "id": 3,
                "defaultImg": "/images/16bbd8b83bd11b9e.jpg",
                "title": "realme 真我V15 6400万像素 50W智慧闪充 仅179g 锦鲤色",
                "price": 7894,
                "createTime": null,
                "tmId": null,
                "tmName": null,
                "category1Id": null,
                "category1Name": null,
                "category2Id": null,
                "category2Name": null,
                "category3Id": null,
                "category3Name": null,
                "hotScore": 0,
                "attrs": null,
                "appraise": 4657
            },
            {
                "id": 4,
                "defaultImg": "/images/53bf147252a3bfbf.jpg",
                "title": "小米11青春版 骁龙780G处理器 AMOLED柔性直屏 8GB+128GB 樱花蜜粉 5G时尚",
                "price": 2346,
                "createTime": null,
                "tmId": null,
                "tmName": null,
                "category1Id": null,
                "category1Name": null,
                "category2Id": null,
                "category2Name": null,
                "category3Id": null,
                "category3Name": null,
                "hotScore": 0,
                "attrs": null,
                "appraise": 3456
            },
            {
                "id": 5,
                "defaultImg": "/images/91587f2ddb955545.jpg",
                "title": "柔宇ROYOLE FlexPai 2 新一代5G双模折叠屏手机 骁龙865旗舰四摄 柔派2",
                "price": 3413,
                "createTime": null,
                "tmId": null,
                "tmName": null,
                "category1Id": null,
                "category1Name": null,
                "category2Id": null,
                "category2Name": null,
                "category3Id": null,
                "category3Name": null,
                "hotScore": 0,
                "attrs": null,
                "appraise": 35789
            },
            {
                "id": 6,
                "defaultImg": "/images/89426408c95f328f.jpg",
                "title": "vivo iQOO U1x全网通高通骁龙662 AI三摄 5000mAh大电池 电竞游戏智能手机",
                "price": 1112,
                "createTime": null,
                "tmId": null,
                "tmName": null,
                "category1Id": null,
                "category1Name": null,
                "category2Id": null,
                "category2Name": null,
                "category3Id": null,
                "category3Name": null,
                "hotScore": 0,
                "attrs": null,
                "appraise": 3451
            },
            {
                "id": 7,
                "defaultImg": "/images/cdae6062af41bd4f.jpg",
                "title": "vivo X60 Pro 12GB+256GB 华彩 5G手机 蔡司光学镜头 超稳微云台四摄 三星5nm",
                "price": 3212,
                "createTime": null,
                "tmId": null,
                "tmName": null,
                "category1Id": null,
                "category1Name": null,
                "category2Id": null,
                "category2Name": null,
                "category3Id": null,
                "category3Name": null,
                "hotScore": 0,
                "attrs": null,
                "appraise": 4532
            },
            {
                "id": 8,
                "defaultImg": "/images/ce224ea92175b6e2.jpg",
                "title": "OPPO Reno5 Pro+ 骁龙865 65W超级闪充 5000万主摄IMX766 12+256 星河入梦",
                "price": 4314,
                "createTime": null,
                "tmId": null,
                "tmName": null,
                "category1Id": null,
                "category1Name": null,
                "category2Id": null,
                "category2Name": null,
                "category3Id": null,
                "category3Name": null,
                "hotScore": 0,
                "attrs": null,
                "appraise": 2365
            },
            {
                "id": 9,
                "defaultImg": "/images/df6f4e22f23f1dc7.png",
                "title": "一加 OnePlus 9 5G旗舰120Hz 柔性屏8GB+128GB 紫翼 骁龙888 65W快充 哈苏",
                "price": 3890,
                "createTime": null,
                "tmId": null,
                "tmName": null,
                "category1Id": null,
                "category1Name": null,
                "category2Id": null,
                "category2Name": null,
                "category3Id": null,
                "category3Name": null,
                "hotScore": 0,
                "attrs": null,
                "appraise": 12345
            },
            {
                "id": 10,
                "defaultImg": "/images/f26df22c9c524d65.jpg",
                "title": "一加 OnePlus 9R 5G旗舰120Hz 柔性屏8GB+256GB 蓝屿 骁龙870 65W快充 专业",
                "price": 3456,
                "createTime": null,
                "tmId": null,
                "tmName": null,
                "category1Id": null,
                "category1Name": null,
                "category2Id": null,
                "category2Name": null,
                "category3Id": null,
                "category3Name": null,
                "hotScore": 0,
                "attrs": null,
                "appraise": 6891
            },{
                "id": 11,
                "defaultImg": "/images/mobile01.png",
                "title": "Apple iPhone 11 (A2223)",
                "price": 5499,
                "createTime": null,
                "tmId": null,
                "tmName": null,
                "category1Id": null,
                "category1Name": null,
                "category2Id": null,
                "category2Name": null,
                "category3Id": null,
                "category3Name": null,
                "hotScore": 0,
                "attrs": null,
                "appraise": 5000
            },
            {
                "id": 12,
                "defaultImg": "/images/9a28034971309f0d.jpg",
                "title": "魅族17 Pro 8GB+128GB 定白 骁龙865 旗舰5G手机 27W无线充 6400W后置主摄",
                "price": 2000,
                "createTime": null,
                "tmId": null,
                "tmName": null,
                "category1Id": null,
                "category1Name": null,
                "category2Id": null,
                "category2Name": null,
                "category3Id": null,
                "category3Name": null,
                "hotScore": 0,
                "attrs": null,
                "appraise": 4000
            },
            {
                "id": 13,
                "defaultImg": "/images/16bbd8b83bd11b9e.jpg",
                "title": "realme 真我V15 6400万像素 50W智慧闪充 仅179g 锦鲤色",
                "price": 7894,
                "createTime": null,
                "tmId": null,
                "tmName": null,
                "category1Id": null,
                "category1Name": null,
                "category2Id": null,
                "category2Name": null,
                "category3Id": null,
                "category3Name": null,
                "hotScore": 0,
                "attrs": null,
                "appraise": 4657
            },
            {
                "id": 14,
                "defaultImg": "/images/53bf147252a3bfbf.jpg",
                "title": "小米11青春版 骁龙780G处理器 AMOLED柔性直屏 8GB+128GB 樱花蜜粉 5G时尚",
                "price": 2346,
                "createTime": null,
                "tmId": null,
                "tmName": null,
                "category1Id": null,
                "category1Name": null,
                "category2Id": null,
                "category2Name": null,
                "category3Id": null,
                "category3Name": null,
                "hotScore": 0,
                "attrs": null,
                "appraise": 3456
            },
            {
                "id": 15,
                "defaultImg": "/images/91587f2ddb955545.jpg",
                "title": "柔宇ROYOLE FlexPai 2 新一代5G双模折叠屏手机 骁龙865旗舰四摄 柔派2",
                "price": 3413,
                "createTime": null,
                "tmId": null,
                "tmName": null,
                "category1Id": null,
                "category1Name": null,
                "category2Id": null,
                "category2Name": null,
                "category3Id": null,
                "category3Name": null,
                "hotScore": 0,
                "attrs": null,
                "appraise": 35789
            },
            {
                "id": 16,
                "defaultImg": "/images/89426408c95f328f.jpg",
                "title": "vivo iQOO U1x全网通高通骁龙662 AI三摄 5000mAh大电池 电竞游戏智能手机",
                "price": 1112,
                "createTime": null,
                "tmId": null,
                "tmName": null,
                "category1Id": null,
                "category1Name": null,
                "category2Id": null,
                "category2Name": null,
                "category3Id": null,
                "category3Name": null,
                "hotScore": 0,
                "attrs": null,
                "appraise": 3451
            },
            {
                "id": 17,
                "defaultImg": "/images/cdae6062af41bd4f.jpg",
                "title": "vivo X60 Pro 12GB+256GB 华彩 5G手机 蔡司光学镜头 超稳微云台四摄 三星5nm",
                "price": 3212,
                "createTime": null,
                "tmId": null,
                "tmName": null,
                "category1Id": null,
                "category1Name": null,
                "category2Id": null,
                "category2Name": null,
                "category3Id": null,
                "category3Name": null,
                "hotScore": 0,
                "attrs": null,
                "appraise": 4532
            },
            {
                "id": 18,
                "defaultImg": "/images/ce224ea92175b6e2.jpg",
                "title": "OPPO Reno5 Pro+ 骁龙865 65W超级闪充 5000万主摄IMX766 12+256 星河入梦",
                "price": 4314,
                "createTime": null,
                "tmId": null,
                "tmName": null,
                "category1Id": null,
                "category1Name": null,
                "category2Id": null,
                "category2Name": null,
                "category3Id": null,
                "category3Name": null,
                "hotScore": 0,
                "attrs": null,
                "appraise": 2365
            },
            {
                "id": 19,
                "defaultImg": "/images/df6f4e22f23f1dc7.png",
                "title": "一加 OnePlus 9 5G旗舰120Hz 柔性屏8GB+128GB 紫翼 骁龙888 65W快充 哈苏",
                "price": 3890,
                "createTime": null,
                "tmId": null,
                "tmName": null,
                "category1Id": null,
                "category1Name": null,
                "category2Id": null,
                "category2Name": null,
                "category3Id": null,
                "category3Name": null,
                "hotScore": 0,
                "attrs": null,
                "appraise": 12345
            },
            {
                "id": 20,
                "defaultImg": "/images/f26df22c9c524d65.jpg",
                "title": "一加 OnePlus 9R 5G旗舰120Hz 柔性屏8GB+256GB 蓝屿 骁龙870 65W快充 专业",
                "price": 3456,
                "createTime": null,
                "tmId": null,
                "tmName": null,
                "category1Id": null,
                "category1Name": null,
                "category2Id": null,
                "category2Name": null,
                "category3Id": null,
                "category3Name": null,
                "hotScore": 0,
                "attrs": null,
                "appraise": 6891
            }
        ],
        "total": 40,
        "pageSize": 2,
        "pageNo": 1,
        "totalPages": 4
    },
    "ok": true
}